112
239 239 180
247 186 198
241 189 225
199 168 227
119 210 235
157 230 218
164 159 151
241 238 209
245 206 214
239 205 229
210 186 229
152 218 236
181 231 222
180 174 164
238 237 227
239 230 229
239 236 234
238 236 235
236 234 235
234 238 235
237 238 234
224 221 214
234 231 226
228 227 224
230 230 225
226 227 224
218 219 215
215 217 213
210 208 200
239 238 183
240 238 195
241 235 199
241 228 207
241 225 205
240 227 208
241 224 208
234 215 199
238 230 216
236 228 214
236 222 206
237 224 210
228 218 203
227 213 194
229 217 206
238 234 225
238 228 217
234 228 219
228 213 202
237 219 213
239 213 210
231 208 205
227 206 202
244 222 225
239 221 222
243 222 227
237 219 220
237 217 222
235 214 224
229 204 211
239 228 227
236 229 230
229 225 231
231 215 216
229 211 215
217 209 228
216 210 225
204 196 213
219 225 235
218 224 234
209 214 230
202 207 228
207 210 226
203 210 220
199 214 225
207 224 235
209 224 235
210 224 232
205 225 235
203 222 232
200 219 227
183 218 224
184 213 221
206 232 232
196 230 232
195 234 232
197 227 229
182 225 224
199 220 219
190 218 221
229 231 227
226 235 228
218 234 234
200 224 222
198 220 217
197 218 214
197 217 214
200 222 220
231 238 224
224 237 221
217 230 214
213 225 210
214 220 207
205 218 205
202 215 204
238 237 210
229 236 204
231 232 211
229 226 192
218 221 196
217 218 198
217 215 183
228 238 214